{
  "type": "service_account",
  "project_id": "app-snab",
  "private_key_id": "0c8e1836577751873fc601ea03eaed19c6bf4b97",
  "private_key": "-----BEGIN PRIVATE KEY-----\nMIIEvQIBADANBgkqhkiG9w0BAQEFAASCBKcwggSjAgEAAoIBAQCnbrogsXn7Hg3m\ny0l2ehsBR9ar+JpRoa1UmxzEljOPv4Vq7sUG320B9TTIiXcvS97jMujIAw4i/fh5\nycoIFiwtmt5i9TAfEMOejMznQRKRP1WaREbX01CgJ300HPOjHxFWEBgsAxSyD1nF\nggdzYD13Aiu2e43KD2DjDsyfBcLpoUUx4LjM6bd0j3MGQIk36+ib6JwrD0xYql1h\n5DR5++eF9cqmCICOQb2V0vWmbgglswUlJd2BSjZDgya6o24q7H/spm1xGmhjhA2T\njCgN/Y8uwPmBPdN3NZsbSipFLkth8v+riC4F5ubcGy08sh7w/rhyF3+5jCBqwJjI\n9jZhclStAgMBAAECggEAF8IXCDeW0wLPPy4edQDbnyFl/U4P+8Bg244NFXoow9+N\n24AZFiITEkGMpV4YOu5dqMibDnKciWuXXBS9pcsbprcAknMvSmEzGObq1m+95j1h\n9Lt2f/6cxLUFx6TKD54DdD5hZ7FiOOgDuYp7ayw/XIlC0aiTlJX9DgsWDwSexU7h\ni92oEjq5URbQEtRSIrUgNmsgkFO67+PGRvVckhEIc8U+BzIps7+rogMcurKkmDPz\nx40KiVw3c+aHoJQvhLtvJVa2qVcbrEnY4ngXzf5RXRSIEDH5hz9ILgFd1ZbgfLqf\nd2WYHZzdAbRFRA8rYhODj6bAYiP86108W4uqLNf1oQKBgQDh1xK6z2vKELB/mxAp\n3qOmHwapWL59yEIVhU+Vtl++9M/DS4m31fuH+a8aBcqn8zwzGqrqJ2gEHNnvtEjh\nNEwtXaFkcLqoU56iEFEM0feyw9sfPtsiJjQSE/9REl7kMCwHTCmtHpgZjfkmGa2A\nQ6mswYa5pFwE+SWAxPdIejMMHQKBgQC9ytbpvwkjD9LAVf653HmpXC7unGgy38eQ\nxyHTe57Xiuv6GaypsqJrPnDHfufbuJvKor6c5qgaOcQjDMztpS9V7+jcIPXOlg4a\nJNKvC64CF8rpgPhfOILPers1uPa9MKxNuULn777vetTTTjnAS9Rf01pO1TcuKsjs\nJDQRFZZl0QKBgQDDLz+Xxubw58WzM5Afr7UeQNhgCjvwt+Ate18SFGHhxvG9Zw6q\nnLzcgzYLto+04erYfCbVYqNqUokku1r1kF56It720Nrx2ftTM+jovJtonA9IjOmV\nNRFxwmi6Z7ctXljfIbsvTS7Ff0ei3zRtk40UqtnGnj+NaMs55IGX2U0/HQKBgDC9\n6inHvRH7G1X3/949yCT9nrP7CSufmwIMkhxdEDMs42OsulIupVXDiHVDm0orhB8r\nYqaq+hsaIMwbmnmhxaFdZsE52cb/dIm0UUNRTZQOBjenvqG9wqKEU5X9daiq2mVv\nocYtJS0dr5DA80X2c4lUn0nFqlE5/bXfqluE3sYxAoGANLnuSH9qTuvufRyWgfT9\nwmbi3d4NUsqLjH23ZCGK3PL3Ha6ytKyfqrUiB+8q3FtC/We8i6rlC9FUdpKnv/y7\nnrohz0E66lNebJ0o/P7URfuPlatnvYyW1yzbO2/FXFTYhMsoSisS0WM+p6gc+T5u\noah9sltDAcmTZp4lcnDnCYw=\n-----END PRIVATE KEY-----\n",
  "client_email": "firebase-adminsdk-znm4m@app-snab.iam.gserviceaccount.com",
  "client_id": "101747427315854318454",
  "auth_uri": "https://accounts.google.com/o/oauth2/auth",
  "token_uri": "https://oauth2.googleapis.com/token",
  "auth_provider_x509_cert_url": "https://www.googleapis.com/oauth2/v1/certs",
  "client_x509_cert_url": "https://www.googleapis.com/robot/v1/metadata/x509/firebase-adminsdk-znm4m%40app-snab.iam.gserviceaccount.com"
}
